...................
----------------------------------------------------------------------
Ran 19 tests in 19.722s

OK
Name             Stmts   Miss Branch BrPart  Cover   Missing
------------------------------------------------------------
Collatz.py          40      0     14      1    98%   61->72
TestCollatz.py      83      0      0      0   100%
------------------------------------------------------------
TOTAL              123      0     14      1    99%
